…
If there are 5 faculty types and 11 years of data, how many rows would
we have? 55 rows

What changes would you propose making to this plot to tell this story?

``` r
staff_long <- staff %>%
  pivot_longer(cols = -faculty_type, names_to = "year") %>%
  mutate(value = as.numeric(value))

staff_long
```

    ## # A tibble: 55 × 3
    ##    faculty_type              year  value
    ##    <chr>                     <chr> <dbl>
    ##  1 Full-Time Tenured Faculty 1975   29  
    ##  2 Full-Time Tenured Faculty 1989   27.6
    ##  3 Full-Time Tenured Faculty 1993   25  
    ##  4 Full-Time Tenured Faculty 1995   24.8
    ##  5 Full-Time Tenured Faculty 1999   21.8
    ##  6 Full-Time Tenured Faculty 2001   20.3
    ##  7 Full-Time Tenured Faculty 2003   19.3
    ##  8 Full-Time Tenured Faculty 2005   17.8
    ##  9 Full-Time Tenured Faculty 2007   17.2
    ## 10 Full-Time Tenured Faculty 2009   16.8
    ## # … with 45 more rows
…
